<?xml version="1.0" encoding="UTF-8" standalone="no"?>
<!-- Created with Inkscape (http://www.inkscape.org/) -->

<svg
   xmlns:dc="http://purl.org/dc/elements/1.1/"
   xmlns:cc="http://creativecommons.org/ns#"
   xmlns:rdf="http://www.w3.org/1999/02/22-rdf-syntax-ns#"
   xmlns:svg="http://www.w3.org/2000/svg"
   xmlns="http://www.w3.org/2000/svg"
   xmlns:sodipodi="http://sodipodi.sourceforge.net/DTD/sodipodi-0.dtd"
   xmlns:inkscape="http://www.inkscape.org/namespaces/inkscape"
   sodipodi:docname="profile-socia.svg"
   inkscape:version="0.92.2 (5c3e80d, 2017-08-06)"
   id="svg8"
   version="1.1"
   viewBox="0 0 210 297"
   height="297mm"
   width="210mm">
  <defs
     id="defs2" />
  <sodipodi:namedview
     inkscape:guide-bbox="true"
     showguides="true"
     inkscape:window-maximized="0"
     inkscape:window-y="18"
     inkscape:window-x="0"
     inkscape:window-height="1041"
     inkscape:window-width="1916"
     showgrid="false"
     inkscape:current-layer="layer1"
     inkscape:document-units="mm"
     inkscape:cy="735.62945"
     inkscape:cx="407.04898"
     inkscape:zoom="0.7"
     inkscape:pageshadow="2"
     inkscape:pageopacity="0.0"
     borderopacity="1.0"
     bordercolor="#666666"
     pagecolor="#ffffff"
     id="base">
    <sodipodi:guide
       position="63.342879,242.1462"
       orientation="1,0"
       id="guide900"
       inkscape:locked="false" />
    <sodipodi:guide
       position="-21.916101,253.63878"
       orientation="0,1"
       id="guide902"
       inkscape:locked="false" />
    <sodipodi:guide
       position="16.570711,193.23587"
       orientation="0,1"
       id="guide908"
       inkscape:locked="false" />
  </sodipodi:namedview>
  <metadata
     id="metadata5">
    <rdf:RDF>
      <cc:Work
         rdf:about="">
        <dc:format>image/svg+xml</dc:format>
        <dc:type
           rdf:resource="http://purl.org/dc/dcmitype/StillImage" />
        <dc:title></dc:title>
      </cc:Work>
    </rdf:RDF>
  </metadata>
  <g
     inkscape:label="Layer 1"
     inkscape:groupmode="layer"
     id="layer1">
    <rect
       style="fill:none;stroke:#1b1b1b;stroke-width:0.32028407;stroke-linecap:round;stroke-linejoin:round;stroke-miterlimit:4;stroke-dasharray:none;stroke-opacity:1"
       id="rect815"
       width="47.084148"
       height="47.88596"
       x="8.2629967"
       y="17.573536" />
    <text
       xml:space="preserve"
       style="font-style:normal;font-weight:normal;font-size:10.58333302px;line-height:1.25;font-family:sans-serif;letter-spacing:0px;word-spacing:0px;fill:#000000;fill-opacity:1;stroke:none;stroke-width:0.26458332"
       x="18.94927"
       y="79.607788"
       id="text827"><tspan
         sodipodi:role="line"
         id="tspan825"
         x="18.94927"
         y="79.607788"
         style="font-size:5.64444447px;stroke-width:0.26458332">Ciudad</tspan></text>
    <text
       xml:space="preserve"
       style="font-style:normal;font-weight:normal;font-size:10.58333302px;line-height:1.25;font-family:sans-serif;letter-spacing:0px;word-spacing:0px;fill:#000000;fill-opacity:1;stroke:none;stroke-width:0.26458332"
       x="82.296646"
       y="33.342438"
       id="text831"><tspan
         sodipodi:role="line"
         id="tspan829"
         x="82.296646"
         y="33.342438"
         style="stroke-width:0.26458332">Nombre de la Socia</tspan></text>
    <text
       xml:space="preserve"
       style="font-style:normal;font-weight:normal;font-size:10.58333302px;line-height:1.25;font-family:sans-serif;letter-spacing:0px;word-spacing:0px;fill:#000000;fill-opacity:1;stroke:none;stroke-width:0.26458332"
       x="32.119949"
       y="37.641109"
       id="text835"><tspan
         sodipodi:role="line"
         x="32.119949"
         y="37.641109"
         style="text-align:center;text-anchor:middle;stroke-width:0.26458332"
         id="tspan1131">Foto de</tspan><tspan
         sodipodi:role="line"
         x="32.119949"
         y="50.870277"
         style="text-align:center;text-anchor:middle;stroke-width:0.26458332"
         id="tspan1137">Perfil</tspan></text>
    <g
       transform="matrix(0.00673893,0,0,0.00673893,9.1922088,74.287355)"
       id="g6">
      <path
         inkscape:connector-curvature="0"
         d="M 500,10 C 280.7,10 103,174.5 103,377.5 103,683.7 433.8,990 500,990 566.2,990 897,683.7 897,377.5 897,174.5 719.3,10 500,10 Z m 0,588 c -109.6,0 -198.5,-87.8 -198.5,-196 0,-108.2 88.9,-196 198.5,-196 109.6,0 198.5,87.8 198.5,196 0,108.2 -88.9,196 -198.5,196 z"
         id="path4" />
    </g>
    <text
       xml:space="preserve"
       style="font-style:normal;font-weight:normal;font-size:10.58333302px;line-height:1.25;font-family:sans-serif;letter-spacing:0px;word-spacing:0px;fill:#000000;fill-opacity:1;stroke:none;stroke-width:0.26458332"
       x="19.096336"
       y="90.526581"
       id="text827-5"><tspan
         sodipodi:role="line"
         id="tspan825-6"
         x="19.096336"
         y="90.526581"
         style="font-size:5.64444447px;stroke-width:0.26458332">Profesión</tspan></text>
    <text
       xml:space="preserve"
       style="font-style:normal;font-weight:normal;font-size:10.58333302px;line-height:1.25;font-family:sans-serif;letter-spacing:0px;word-spacing:0px;fill:#000000;fill-opacity:1;stroke:none;stroke-width:0.26458332"
       x="65.472862"
       y="51.547295"
       id="text938-9"><tspan
         sodipodi:role="line"
         id="tspan936-8"
         x="65.472862"
         y="51.547295"
         style="font-size:4.93888903px;stroke-width:0.26458332">Información</tspan></text>
    <rect
       style="fill:none;stroke:#1b1b1b;stroke-width:0.38132203;stroke-linecap:round;stroke-linejoin:round;stroke-miterlimit:4;stroke-dasharray:none;stroke-opacity:1"
       id="rect940-7"
       width="34.060543"
       height="8.0017567"
       x="63.34288"
       y="45.942799"
       ry="4.0008783"
       rx="3.8803148" />
    <text
       xml:space="preserve"
       style="font-style:normal;font-weight:normal;font-size:10.58333302px;line-height:1.25;font-family:sans-serif;letter-spacing:0px;word-spacing:0px;fill:#000000;fill-opacity:1;stroke:none;stroke-width:0.26458332"
       x="102.77285"
       y="51.413658"
       id="text938-9-9"><tspan
         sodipodi:role="line"
         id="tspan936-8-9"
         x="102.77285"
         y="51.413658"
         style="font-size:4.93888903px;stroke-width:0.26458332">Empresas</tspan></text>
    <rect
       style="fill:none;stroke:#1b1b1b;stroke-width:0.38132203;stroke-linecap:round;stroke-linejoin:round;stroke-miterlimit:4;stroke-dasharray:none;stroke-opacity:1"
       id="rect940-7-6"
       width="34.060543"
       height="8.0017567"
       x="97.403412"
       y="45.942799"
       ry="4.0008783"
       rx="3.8803148" />
    <rect
       style="fill:none;stroke:#1b1b1b;stroke-width:0.58499998;stroke-linecap:square;stroke-linejoin:round;stroke-miterlimit:4;stroke-dasharray:0.585, 1.17;stroke-dashoffset:0;stroke-opacity:1"
       id="rect1044"
       width="143.35674"
       height="162.15088"
       x="63.34288"
       y="53.944557"
       rx="0"
       ry="0" />
    <path
       id="path1114"
       d="m 13.121303,84.247342 c -1.867912,0 -3.3876342,1.519721 -3.3876342,3.387633 0,1.868058 1.5197222,3.387632 3.3876342,3.387632 1.868058,0 3.387632,-1.519574 3.387632,-3.387632 0,-1.867912 -1.519574,-3.387633 -3.387632,-3.387633 z m 1.435177,4.283146 c -0.391935,0.391935 -0.904351,0.346275 -1.403069,0.04272 l -1.673932,1.67835 c -0.393702,-0.247891 -0.727015,-0.581351 -0.974901,-0.975052 l 1.67835,-1.67408 c -0.303415,-0.498572 -0.349074,-1.010988 0.04271,-1.402775 0.358941,-0.358795 1.232803,-0.762218 1.748165,-0.582672 l -0.776947,0.776945 c -0.10723,0.10723 -0.10723,0.281173 0,0.3884 l 0.776947,0.776946 c 0.10723,0.107368 0.281174,0.107368 0.3884,0 l 0.776946,-0.776946 c 0.179544,0.515509 -0.223879,1.389371 -0.582674,1.748164 z"
       inkscape:connector-curvature="0"
       style="stroke-width:0.14728835" />
    <g
       transform="matrix(0.01140776,0,0,0.01140776,8.7572609,94.464927)"
       id="layer1-2"
       style="fill-rule:evenodd">
      <rect
         x="58.021999"
         y="472.57001"
         width="615.03998"
         height="179.03999"
         id="rect3241"
         style="fill:#ffffff" />
      <path
         d="M 49.719,1.75 V 434.44 H 0 V 696.38 H 746 V 434.44 H 719.34 L 505.62,222.25 v 212.19 h -8.43 L 283.47,222.25 v 212.19 h -184 L 99.469,1.75 Z M 91.188,490 h 51.402 v 51.38 H 91.188 Z m 102.43,0 h 51.41 v 51.38 h -51.41 z m 102.47,0 h 51.41 v 51.38 h -51.41 z m 102.44,0 h 51.41 v 51.38 h -51.41 z m 102.47,0 h 51.41 v 51.38 h -51.41 z m 102.44,0 h 51.4 v 51.38 h -51.4 z m -512.25,99.47 h 51.402 v 51.37 H 91.188 Z m 102.43,0 h 51.41 v 51.37 h -51.41 z m 102.47,0 h 51.41 v 51.37 h -51.41 z m 102.44,0 h 51.41 v 51.37 h -51.41 z m 102.47,0 h 51.41 v 51.37 h -51.41 z m 102.44,0 h 51.4 v 51.37 h -51.4 z"
         id="rect2396"
         inkscape:connector-curvature="0" />
    </g>
    <text
       xml:space="preserve"
       style="font-style:normal;font-weight:normal;font-size:10.58333302px;line-height:1.25;font-family:sans-serif;letter-spacing:0px;word-spacing:0px;fill:#000000;fill-opacity:1;stroke:none;stroke-width:0.26458332"
       x="18.810989"
       y="101.60838"
       id="text827-5-1"><tspan
         sodipodi:role="line"
         x="18.810989"
         y="101.60838"
         style="font-size:5.64444447px;line-height:1;stroke-width:0.26458332"
         id="tspan1201">N empresas</tspan></text>
    <g
       transform="translate(-0.3076055,0.11612174)"
       id="g3983">
      <rect
         ry="0"
         y="0.097011015"
         x="0.53883094"
         height="11.994752"
         width="209.80873"
         id="rect3959"
         style="fill:#424242;fill-opacity:1;stroke:#1b1b1b;stroke-width:0.61729902;stroke-linecap:square;stroke-linejoin:round;stroke-miterlimit:4;stroke-dasharray:none;stroke-dashoffset:0;stroke-opacity:1" />
      <g
         id="g3976">
        <rect
           style="fill:#ffffff;fill-opacity:1;stroke:#1b1b1b;stroke-width:0.52780086;stroke-linecap:square;stroke-linejoin:round;stroke-miterlimit:4;stroke-dasharray:none;stroke-dashoffset:0;stroke-opacity:1"
           id="rect3957"
           width="125.94115"
           height="7.1761999"
           x="70.071991"
           y="2.5969431"
           ry="2.3920667" />
        <text
           xml:space="preserve"
           style="font-style:normal;font-weight:normal;font-size:10.58333302px;line-height:1.25;font-family:sans-serif;letter-spacing:0px;word-spacing:0px;fill:#000000;fill-opacity:1;stroke:none;stroke-width:0.26458332"
           x="74.272324"
           y="7.7348208"
           id="text3971"><tspan
             sodipodi:role="line"
             id="tspan3969"
             x="74.272324"
             y="7.7348208"
             style="font-style:italic;font-variant:normal;font-weight:normal;font-stretch:normal;font-size:4.23333311px;font-family:sans-serif;-inkscape-font-specification:'sans-serif Italic';fill:#969696;fill-opacity:1;stroke-width:0.26458332">Buscar empresas o personas</tspan></text>
      </g>
    </g>
  </g>
  <style
     id="style864"
     type="text/css">
	.st0{fill:#333333;}
</style>
</svg>
